MainDecoder/tests/wave_sv.vcd
$date
	Wed Nov  9 13:27:39 2022
$end
$version
	Icarus Verilog
$end
$timescale
	1ps
$end
$scope module EnabledFF $end
$var wire 1 ! clk $end
$upscope $end
$scope module EnabledFF $end
$var wire 1 " en $end
$upscope $end
$scope module EnabledFF $end
$var wire 32 # d [31:0] $end
$upscope $end
$scope module EnabledFF $end
$var reg 32 $ q [31:0] $end
$upscope $end
$enddefinitions $end
#0
$dumpvars
bx $
bz #
z"
1!
$end
#5000000
0!
#10000000
1!
#15000000
0"
b0 #
0!
#20000000
1!
#25000000
1"
0!
#30000000
b0 $
1!
#35000000
0"
b1 #
0!
#40000000
1!
#45000000
1"
0!
#50000000
b1 $
1!
#55000000
0"
b10 #
0!
#60000000
1!
#65000000
1"
0!
#70000000
b10 $
1!
#75000000
0"
b11 #
0!
#80000000
1!
#85000000
1"
0!
#90000000
b11 $
1!
#95000000
0"
b100 #
0!
#100000000
1!
#105000000
1"
0!
#110000000
b100 $
1!
#115000000
0"
b101 #
0!
#120000000
1!
#125000000
1"
0!
#130000000
b101 $
1!
#135000000
0"
b110 #
0!
#140000000
1!
#145000000
1"
0!
#150000000
b110 $
1!
#155000000
0"
b111 #
0!
#160000000
1!
#165000000
1"
0!
#170000000
b111 $
1!
#175000000
0"
b1000 #
0!
#180000000
1!
#185000000
1"
0!
#190000000
b1000 $
1!
#195000000
0"
b1001 #
0!
#200000000
1!
#205000000
1"
0!
#210000000
b1001 $
1!
#215000000
0"
b1010 #
0!
#220000000
1!
#225000000
1"
0!
#230000000
b1010 $
1!
#235000000
0"
b1011 #
0!
#240000000
1!
#245000000
1"
0!
#250000000
b1011 $
1!
#255000000
0"
b1100 #
0!
#260000000
1!
#265000000
1"
0!
#270000000
b1100 $
1!
#275000000
0"
b1101 #
0!
#280000000
1!
#285000000
1"
0!
#290000000
b1101 $
1!
#295000000
0"
b1110 #
0!
#300000000
1!
#305000000
1"
0!
#310000000
b1110 $
1!
#315000000
0"
b1111 #
0!
#320000000
1!
#325000000
1"
0!
#330000000
b1111 $
1!
